4bitripper/simulation/qsim/RIPPER.msim.vcd
$comment
	File created using the following command:
		vcd file RIPPER.msim.vcd -direction
$end
$date
	Sun Nov 02 13:23:57 2025
$end
$version
	ModelSim Version 10.1d
$end
$timescale
	1ps
$end
$scope module RIPPER_vlg_vec_tst $end
$var reg 1 ! clk $end
$var reg 1 " rstn $end
$var wire 1 # q [3] $end
$var wire 1 $ q [2] $end
$var wire 1 % q [1] $end
$var wire 1 & q [0] $end
$var wire 1 ' sampler $end
$scope module i1 $end
$var wire 1 ( gnd $end
$var wire 1 ) vcc $end
$var wire 1 * unknown $end
$var tri1 1 + devclrn $end
$var tri1 1 , devpor $end
$var tri1 1 - devoe $end
$var wire 1 . q[0]~0_combout $end
$var wire 1 / q[0]~output_o $end
$var wire 1 0 q[1]~output_o $end
$var wire 1 1 q[2]~output_o $end
$var wire 1 2 q[3]~output_o $end
$var wire 1 3 clk~input_o $end
$var wire 1 4 q[0]~reg0feeder_combout $end
$var wire 1 5 rstn~input_o $end
$var wire 1 6 rstn~inputclkctrl_outclk $end
$var wire 1 7 q[0]~reg0_q $end
$var wire 1 8 q[1]~1_combout $end
$var wire 1 9 q[1]~reg0feeder_combout $end
$var wire 1 : q[1]~reg0_q $end
$var wire 1 ; q[2]~2_combout $end
$var wire 1 < q[2]~reg0_q $end
$var wire 1 = q[3]~3_combout $end
$var wire 1 > q[3]~reg0_q $end
$upscope $end
$upscope $end
$enddefinitions $end
#0
$dumpvars
1!
1"
x&
x%
x$
x#
x'
0(
1)
x*
1+
1,
1-
x.
x/
x0
x1
x2
13
x4
15
x6
07
x8
x9
0:
x;
0<
1=
0>
$end
#453
16
#658
18
#799
1;
#1183
19
#1437
1.
#2756
14
#3553
00
0%
#3567
0/
0&
#3570
02
0#
#3604
01
0$
#70000
0!
0'
#70727
03
#110000
1!
1'
#110597
13
#112748
17
#114172
0.
#115487
04
#116402
1/
1&
#150000
0"
0!
0'
#150727
03
#150737
05
#151175
06
#153094
07
#154531
1.
#155850
14
#156661
0/
0&
#190000
1"
1!
1'
#190597
13
#190607
15
#191060
16
#230000
0"
0!
0'
#230727
03
#230737
05
#231175
06
#250000
1!
1'
#250597
13
#270000
1"
0'
#270607
15
#271060
16
#310000
0"
1'
#310737
05
#311175
06
#340000
0!
0'
#340727
03
#350000
1"
1!
1'
#350597
13
#350607
15
#351060
16
#360000
0!
0'
#360727
03
#370000
1!
1'
#370597
13
#372748
17
#374172
0.
#375487
04
#376402
1/
1&
#410000
0!
0'
#410727
03
#420000
1!
1'
#420597
13
#422748
07
#423959
1:
#424185
1.
#424547
08
#425065
09
#425504
14
#426315
0/
0&
#427600
10
1%
#430000
0!
0'
#430727
03
#440000
1!
1'
#440597
13
#442748
17
#444172
0.
#445487
04
#446402
1/
1&
#530000
0"
0!
0'
#530727
03
#530737
05
#531175
06
#533094
07
0:
#533752
18
#534277
19
#534531
1.
#535850
14
#536647
00
0%
#536661
0/
0&
#560000
1"
1'
#560607
15
#561060
16
#570000
1!
0'
#570597
13
#572748
17
#574172
0.
#575487
04
#576402
1/
1&
#580000
0"
1'
#580737
05
#581175
06
#583094
07
#584531
1.
#585850
14
#586661
0/
0&
#610000
0!
1"
0'
#610607
15
#610727
03
#611060
16
#640000
0"
1'
#640737
05
#641175
06
#650000
1!
1"
0'
#650597
13
#650607
15
#651060
16
#670000
0"
1'
#670737
05
#671175
06
#680000
1"
0'
#680607
15
#681060
16
#690000
0!
0"
1'
#690727
03
#690737
05
#691175
06
#710000
1"
0'
#710607
15
#711060
16
#730000
1!
0"
1'
#730597
13
#730737
05
#731175
06
#732748
17
#733094
07
#750000
1"
0'
#750607
15
#751060
16
#770000
0!
1'
#770727
03
#810000
1!
0'
#810597
13
#812748
17
#814172
0.
#815487
04
#816402
1/
1&
#840000
0"
1'
#840737
05
#841175
06
#843094
07
#844531
1.
#845850
14
#846661
0/
0&
#850000
0!
0'
#850727
03
#860000
1"
1'
#860607
15
#861060
16
#880000
1!
0"
0'
#880597
13
#880737
05
#881175
06
#882748
17
#883094
07
#900000
1"
1'
#900607
15
#901060
16
#920000
0"
0'
#920737
05
#921175
06
#940000
1"
1'
#940607
15
#941060
16
#960000
0"
0'
#960737
05
#961175
06
#980000
1"
1'
#980607
15
